チャプター８：R言語入門
…
##   depth = col_double(),
##   `unique SNPs` = col_double(),
##   dhSNPs = col_double(),
##   `reference Bases` = col_double(),
##   Theta = col_double(),
##   Pi = col_double(),
##   Heterozygosity = col_double(),
##   `%GC` = col_double(),
##   Recombination = col_double(),
##   Divergence = col_double(),
##   Constraint = col_double(),
##   SNPs = col_double()
## )

## # A tibble: 59,140 x 16
##    start   end `total SNPs` `total Bases` depth `unique SNPs` dhSNPs `reference Bases` Theta    Pi
##    <dbl> <dbl>        <dbl>         <dbl> <dbl>         <dbl>  <dbl>             <dbl> <dbl> <dbl>
##  1 55001 56000            0          1894  3.41             0      0               556  0     0   
##  2 56001 57000            5          6683  6.68             2      2              1000  8.01 10.4 
##  3 57001 58000            1          9063  9.06             1      0              1000  3.51  1.99
##  4 58001 59000            7         10256 10.3              3      2              1000  9.93  9.56
##  5 59001 60000            4          8057  8.06             4      0              1000 12.9   8.51
##  6 60001 61000            6          7051  7.05             2      1              1000  7.82  9.12
##  7 61001 62000            7          6950  6.95             2      1              1000  8.60  8.06
##  8 62001 63000            1          8834  8.83             1      0              1000  4.01  2.06
##  9 63001 64000            1          9629  9.63             1      0              1000  3.37  1.88
## 10 64001 65000            3          7999  8                1      1              1000  4.16  5.41
## # … with 59,130 more rows, and 6 more variables: Heterozygosity <dbl>, %GC <dbl>,
## #   Recombination <dbl>, Divergence <dbl>, Constraint <dbl>, SNPs <dbl>
…
mtfs

## # A tibble: 20,050 x 9
##    chr   motif_start motif_end   dist recomb_start recomb_end  recom motif         pos          
##    <chr>       <dbl>     <dbl>  <dbl>        <dbl>      <dbl>  <dbl> <chr>         <chr>        
##  1 chrX     35471312  35471325 39323      35430651   35433340 0.0015 CCTCCCTGACCAC chrX-35471312
##  2 chrX     35471312  35471325 36977      35433339   35435344 0.0015 CCTCCCTGACCAC chrX-35471312
##  3 chrX     35471312  35471325 34798.     35435343   35437699 0.0015 CCTCCCTGACCAC chrX-35471312
##  4 chrX     35471312  35471325 31850.     35437698   35441240 0.0015 CCTCCCTGACCAC chrX-35471312
##  5 chrX     35471312  35471325 27463      35441239   35446472 0.0015 CCTCCCTGACCAC chrX-35471312
##  6 chrX     35471312  35471325 24834      35446471   35446498 0.0016 CCTCCCTGACCAC chrX-35471312
##  7 chrX     35471312  35471325 21783      35446497   35452574 0.0017 CCTCCCTGACCAC chrX-35471312
##  8 chrX     35471312  35471325 18516.     35452573   35453031 1.51   CCTCCCTGACCAC chrX-35471312
##  9 chrX     35471312  35471325 17440      35453030   35454727 0.0076 CCTCCCTGACCAC chrX-35471312
## 10 chrX     35471312  35471325 15814      35454726   35456283 0.0076 CCTCCCTGACCAC chrX-35471312
## # … with 20,040 more rows
rpts <- read_delim("motif_repeats.txt", delim = "\t")

## 
## ── Column specification ──────────────────────────────────────────────────────────────────────────
## cols(
##   chr = col_character(),
##   start = col_double(),
##   end = col_double(),
##   name = col_character(),
##   motif_start = col_double()
## )

rpts

## # A tibble: 317 x 5
##    chr       start       end name  motif_start
##    <chr>     <dbl>     <dbl> <chr>       <dbl>
##  1 chrX   63005829  63006173 L2       63005830
##  2 chrX   67746983  67747478 L2       67747232
##  3 chrX  118646988 118647529 L2      118647199
##  4 chrX  123998417 123998701 L2      123998675
##  5 chr13  36171897  36172404 L2       36172069
##  6 chr13  47030437  47031075 L2       47030836
##  7 chr13 112828064 112828466 L2      112828268
##  8 chr12  44799399  44799664 L2       44799602
##  9 chr12  71407097  71407379 L2       71407292
## 10 chr12 102646349 102646646 L2      102646586
## # … with 307 more rows

# 左のデータ(mtfs)に右のデータ(rpts)をマージする
left_join(
  mtfs,
  select(rpts, name, chr, motif_start),
  by = c("chr", "motif_start")
)

## # A tibble: 20,050 x 10
##    chr   motif_start motif_end   dist recomb_start recomb_end  recom motif       pos         name 
##    <chr>       <dbl>     <dbl>  <dbl>        <dbl>      <dbl>  <dbl> <chr>       <chr>       <chr>
##  1 chrX     35471312  35471325 39323      35430651   35433340 0.0015 CCTCCCTGAC… chrX-35471… <NA> 
##  2 chrX     35471312  35471325 36977      35433339   35435344 0.0015 CCTCCCTGAC… chrX-35471… <NA> 
##  3 chrX     35471312  35471325 34798.     35435343   35437699 0.0015 CCTCCCTGAC… chrX-35471… <NA> 
##  4 chrX     35471312  35471325 31850.     35437698   35441240 0.0015 CCTCCCTGAC… chrX-35471… <NA> 
##  5 chrX     35471312  35471325 27463      35441239   35446472 0.0015 CCTCCCTGAC… chrX-35471… <NA> 
##  6 chrX     35471312  35471325 24834      35446471   35446498 0.0016 CCTCCCTGAC… chrX-35471… <NA> 
##  7 chrX     35471312  35471325 21783      35446497   35452574 0.0017 CCTCCCTGAC… chrX-35471… <NA> 
##  8 chrX     35471312  35471325 18516.     35452573   35453031 1.51   CCTCCCTGAC… chrX-35471… <NA> 
##  9 chrX     35471312  35471325 17440      35453030   35454727 0.0076 CCTCCCTGAC… chrX-35471… <NA> 
## 10 chrX     35471312  35471325 15814      35454726   35456283 0.0076 CCTCCCTGAC… chrX-35471… <NA> 
## # … with 20,040 more rows

他にも色々な*_join() があります。例えば、inner_join()は両方のデータに条件が一致した行だけを残します：

inner_join(
  mtfs,
  select(rpts, name, chr, motif_start),
  by = c("chr", "motif_start")
)

## # A tibble: 9,218 x 10
##    chr   motif_start motif_end    dist recomb_start recomb_end  recom motif       pos        name 
##    <chr>       <dbl>     <dbl>   <dbl>        <dbl>      <dbl>  <dbl> <chr>       <chr>      <chr>
##  1 chrX     63005830  63005843  37772      62965644   62970485 1.47   CCTCCCTGAC… chrX-6300… L2   
##  2 chrX     63005830  63005843  34673      62970484   62971843 0.0448 CCTCCCTGAC… chrX-6300… L2   
##  3 chrX     63005830  63005843  30084.     62971842   62979662 0.0448 CCTCCCTGAC… chrX-6300… L2   
##  4 chrX     63005830  63005843  21750.     62979661   62988511 0.0494 CCTCCCTGAC… chrX-6300… L2   
##  5 chrX     63005830  63005843  10682.     62988510   63001800 0.045  CCTCCCTGAC… chrX-6300… L2   
##  6 chrX     63005830  63005843   2210.     63001799   63005455 0.0388 CCTCCCTGAC… chrX-6300… L2   
##  7 chrX     63005830  63005843   -384.     63005454   63006988 0.0377 CCTCCCTGAC… chrX-6300… L2   
##  8 chrX     63005830  63005843  -3530.     63006987   63011745 0.0377 CCTCCCTGAC… chrX-6300… L2   
##  9 chrX     63005830  63005843  -6024.     63011744   63011976 0.0368 CCTCCCTGAC… chrX-6300… L2   
## 10 chrX     63005830  63005843 -12691      63011975   63025080 0.0362 CCTCCCTGAC… chrX-6300… L2   
## # … with 9,208 more rows
